file	classifier	Options	MaximizedValue	nbrOfFeatures	Accuracy	MCC	Sensitivity	F1 score P	Specificity	F1 score N	[TP FN][FP TN]	kappa	AUC	AttributeList
bayes.NaiveBayes	 -K	AUC.txt	
bayes.NaiveBayes		AUC.txt	
bayes.NaiveBayesUpdateable		AUC.txt	
bayes.NaiveBayesUpdateable	 -K	AUC.txt	
bayes.NaiveBayes	 -D	AUC.txt	
