Patient	DRUG_EFFICACY	Sex	Race	Disease_duration	Not_SPMS	Age	Cancer	class
ac000003	Low	Male	White	12	0	61	no	edss[3-6.5]
ac000025	Low	Female	White	23	0	47	no	edss[3-6.5]
ac000028	Low	Female	White	7	0	56	yes	edss[3-6.5]
ac000046	Low	Female	White	25	0	54	yes	edss[3-6.5]
ac000066	Low	Female	White	20	0	48	no	edss[3-6.5]
ac000089	High	Male	White	6	0	39	no	edss[0-2.5]
ac000101	None	Female	White	19	1	76	yes	edss[3-6.5]
ac000111	Low	Female	White	11	0	36	no	edss[3-6.5]
ac000124	Low	Female	White	7	0	54	no	edss[0-2.5]
ac000129	Low	Female	White	7	0	46	no	edss[3-6.5]
ac000145	Low	Female	White	2	0	64	no	edss[3-6.5]
ac000169	Low	Female	White	23	0	51	yes	edss[3-6.5]
ac000203	Low	Male	White	17	0	45	no	edss[3-6.5]
ac000215	Low	Male	White	36	0	70	no	edss[3-6.5]
ac000223	None	Male	White	0	0	49	no	edss[0-2.5]
ac000224	High	Female	Black	8	0	53	no	edss[0-2.5]
ac000234	Low	Female	White	16	0	53	no	edss[3-6.5]
ac000290	Low	Male	White	2.2	0	35.2	no	edss[0-2.5]
ac000347	High	Female	White	29	0	59	no	edss[3-6.5]
ac000360	Low	Male	White	11	0	55	no	edss[0-2.5]
ac000369	None	Female	White	23	0	53	no	edss[3-6.5]
ac000426	Low	Female	White	5	0	55	no	edss[0-2.5]
ac000455	None	Female	White	6	0	54	no	edss[3-6.5]
ac000493	High	Female	White	6	0	48	no	edss[3-6.5]
ac000504	Low	Female	White	16	0	59	yes	edss[3-6.5]
ac000542	Low	Female	White	8	0	31	no	edss[3-6.5]
ac000548	Low	Male	White	8	0	54	no	edss[3-6.5]
ac000576	Low	Male	White	8	0	59.1	yes	edss[3-6.5]
ac000588	High	Female	White	5	0	58	no	edss[0-2.5]
ac000612	Low	Female	White	9	0	63	no	edss[3-6.5]
ac000616	None	Female	White	4	0	55	no	edss[3-6.5]
ac000665	Low	Female	White	11	0	56	no	edss[3-6.5]
ac000684	Low	Male	White	18	0	61	no	edss[3-6.5]
ac000785	High	Male	White	11	0	55	no	edss[3-6.5]
ac000818	Low	Female	White	10	0	62	no	edss[3-6.5]
ac000893	None	Female	White	21	0	48	no	edss[3-6.5]
ac000905	Low	Male	White	22	0	62	no	edss[0-2.5]
ac000932	Low	Female	White	36	0	56	no	edss[3-6.5]
ac000980	Low	Female	White	23	0	66	yes	edss[3-6.5]
ac001033	Low	Male	White	33	0	65	no	edss[3-6.5]
ac001040	Low	Female	White	16	0	62	yes	edss[3-6.5]
ac001051	None	Female	Black	0	0	59	no	ctl
ac001078	High	Female	White	10	1	72	no	edss[3-6.5]
ac001088	None	Female	White	16	0	43	no	edss[3-6.5]
ac001129	None	Female	White	12	0	54	yes	edss[0-2.5]
ac001148	None	Male	White	19	0	58.2	yes	edss[7-10]
ac001166	None	Female	White	32	0	58	yes	edss[0-2.5]
ac001184	Low	Male	White	2	0	47	no	edss[3-6.5]
ac001188	None	Female	White	0	0	72	yes	ctl
ac001191	Low	Female	White	1	0	52	no	edss[3-6.5]
ac001206	None	Female	White	0	0	58	no	ctl
ac001222	None	Female	White	25	0	65	no	edss[3-6.5]
ac001235	High	Female	NativeAmerican	20	1	40	no	edss[3-6.5]
ac001237	Low	Female	White	22	1	42.3	no	edss[7-10]
