Patient	Age	Sex	Race	DRUG_EFFICACY	Cancer	Disease_duration	Not_SPMS	class
AC000003	61	Male	White	Low	no	12	0	edss[3-6.5]
AC000025	47	Female	White	Low	no	23	0	edss[3-6.5]
AC000028	56	Female	White	Low	yes	7	0	edss[3-6.5]
AC000046	54	Female	White	Low	yes	25	0	edss[3-6.5]
AC000066	48	Female	White	Low	no	20	0	edss[3-6.5]
AC000089	39	Male	White	High	no	6	0	edss[0-2.5]
AC000101	76	Female	White	None	yes	19	1	edss[3-6.5]
AC000111	36	Female	White	Low	no	11	0	edss[3-6.5]
AC000124	54	Female	White	Low	no	7	0	edss[0-2.5]
AC000129	46	Female	White	Low	no	7	0	edss[3-6.5]
AC000145	64	Female	White	Low	no	2	0	edss[3-6.5]
AC000169	51	Female	White	Low	yes	23	0	edss[3-6.5]
AC000203	45	Male	White	Low	no	17	0	edss[3-6.5]
AC000215	70	Male	White	Low	no	36	0	edss[3-6.5]
AC000223	49	Male	White	None	no	0	0	edss[0-2.5]
AC000224	53	Female	Black	High	no	8	0	edss[0-2.5]
AC000234	53	Female	White	Low	no	16	0	edss[3-6.5]
AC000290	35,2	Male	White	Low	no	2,2	0	edss[0-2.5]
AC000347	59	Female	White	High	no	29	0	edss[3-6.5]
AC000360	55	Male	White	Low	no	11	0	edss[0-2.5]
AC000369	53	Female	White	None	no	23	0	edss[3-6.5]
AC000426	55	Female	White	Low	no	5	0	edss[0-2.5]
AC000455	54	Female	White	None	no	6	0	edss[3-6.5]
AC000493	48	Female	White	High	no	6	0	edss[3-6.5]
AC000504	59	Female	White	Low	yes	16	0	edss[3-6.5]
AC000542	31	Female	White	Low	no	8	0	edss[3-6.5]
AC000548	54	Male	White	Low	no	8	0	edss[3-6.5]
AC000576	59,1	Male	White	Low	yes	8	0	edss[3-6.5]
AC000588	58	Female	White	High	no	5	0	edss[0-2.5]
AC000612	63	Female	White	Low	no	9	0	edss[3-6.5]
AC000616	55	Female	White	None	no	4	0	edss[3-6.5]
AC000665	56	Female	White	Low	no	11	0	edss[3-6.5]
AC000684	61	Male	White	Low	no	18	0	edss[3-6.5]
AC000785	55	Male	White	High	no	11	0	edss[3-6.5]
AC000818	62	Female	White	Low	no	10	0	edss[3-6.5]
AC000893	48	Female	White	None	no	21	0	edss[3-6.5]
AC000905	62	Male	White	Low	no	22	0	edss[0-2.5]
AC000932	56	Female	White	Low	no	36	0	edss[3-6.5]
AC000980	66	Female	White	Low	yes	23	0	edss[3-6.5]
AC001033	65	Male	White	Low	no	33	0	edss[3-6.5]
AC001040	62	Female	White	Low	yes	16	0	edss[3-6.5]
AC001051	59	Female	Black	None	no	0	0	ctl
AC001078	72	Female	White	High	no	10	1	edss[3-6.5]
AC001088	43	Female	White	None	no	16	0	edss[3-6.5]
AC001129	54	Female	White	None	yes	12	0	edss[0-2.5]
AC001148	58,2	Male	White	None	yes	19	0	edss[7-10]
AC001166	58	Female	White	None	yes	32	0	edss[0-2.5]
AC001184	47	Male	White	Low	no	2	0	edss[3-6.5]
AC001188	72	Female	White	None	yes	0	0	ctl
AC001191	52	Female	White	Low	no	1	0	edss[3-6.5]
AC001206	58	Female	White	None	no	0	0	ctl
AC001222	65	Female	White	None	no	25	0	edss[3-6.5]
AC001235	40	Female	NativeAmerican	High	no	20	1	edss[3-6.5]
AC001237	42,3	Female	White	Low	no	22	1	edss[7-10]
